C:\Users\RENT\IdeaProjects\hello-util\src\main\java\pl\sda\workshop\model\Employee.java
C:\Users\RENT\IdeaProjects\hello-util\src\main\java\pl\sda\workshop\model\Owner.java
C:\Users\RENT\IdeaProjects\hello-util\src\main\java\pl\sda\workshop\model\Address.java
C:\Users\RENT\IdeaProjects\hello-util\src\main\java\pl\sda\workshop\model\Workshop.java
C:\Users\RENT\IdeaProjects\hello-util\src\main\java\pl\teos\sda\helloutil\main\AddOperation.java
C:\Users\RENT\IdeaProjects\hello-util\src\main\java\pl\sda\workshop\model\Person.java
